                                                                                                       -----0.05---
 
                                                                                 +------VME1_IBVG
                                                                                 |
                                                                                 | +----VME1_IBVK
                                                                              +--+ |
                                                                              |  | | +-VME1_IBVDE
                                                                              |  | | |
                                                                              |  +-+++-VME1_IBVM
                                                                              |    |||
                                                                              |    ||+-VME1_IBVD1
                                                                              |    ++
 +----------------------------------------------------------------------------+     |  +--VME1_IBVBU
 |                                                                            |     | ++
 |                                                                            |     | |+VME1_IBVB
 |                                                                            |     +-+
 |                                                                            |       +-VME1_IBVB2
 |                                                                            |
 |                                                                            |
 |                                                                            +-----------VME1_IBV6
 |
 |                                                                             +-VME1_CVTKE
 |                                                                             |
 |                                                                             |VME1_CVBF
 |                                                                            ++
 |                                                                            ||+VME1_CVBLS
 |                                                                            |++
 |                                                                         +--+ |+VME1_CVBLU
 |                                                                         |  | ++
 |                                                                         |  |  +-VME1_CVBEN
 |                                                                        ++  |
 |                                                                        ||  +-VME1_CVBLY
 |                                                                        ||
 |                                                             +----------++--------VME1_CVHOC
 |                                                             |          |
 |                                                             |          |       +-VME1_CVPIA
 |                                                             |          +-------+
 |                                                             |                  +VME1_CVP67
 |                                                             |
 |                                                        +----+                   +--VME1_CVRSD
 |                                                        |    |             +-----+
 |                                                        |    |             |    -+ME1_CVRNJ
 |                                                        |    |           +-+
 |                                                        |    |           | | +------VME1_CVMJH
 |                                                        |    |           | +-+
 |                                                        |    +-----------+   +--VME1_CVMA5
 |                +---------------------------------------+                |
 |                |                                       |                +-----VME1_CVM2
 |                |                                       |
 |                |                                       |                         +VME1_CVHN5
 |                |                                       |                         |
 |                |                                       |                 +-------+
 |                |                                       +-----------------+       +-VME1_CVHN2
 |                |                                                         |
 |                |                                                         +-------VME1_CVHN1
 |                |
 |             +--+                                                               +--------------------VME1_FIPV
 |             |  |                                                               |
 |             |  |                                                               |             +VME1_CVPRM
 |             |  |                                                               |         +---+
 |             |  |                         +-------------------------------------+         |   +VME1_CVPR8
 |             |  |                         |                                     | +-------+
 |             |  |                         |                                     | |       |+----VME1_CVPPU
 |             |  |                         |                                     | |       ++
 |             |  |                         |                                     +-+        +-----VME1_CVPFS
 |             |  |                         |                                       |
 |             |  |                         |                                       | +-------------VME1_CVCBG
 |             |  +-------------------------+                                       +-+
 |             |                            |                                         +---------------VME1_CVCAI
 |           +-+                            |
 |           | |                            |                   +---------------------------------------------VME1_CVHNL
 |           | |                            |            +------+
 |           | |                            |            |      +--------------------------------------------VME1_CVH22
 |           | |                            |            |
 |           | |                            +------------+                                      +-VME1_PEDVB
 |           | |                                         |                 +--------------------+
 |           | |                                         |                 |                    +VME1_PEDV7
 |           | |                                         +-----------------+
 |           | |                                                           +----------------------VME1_BC512
 |           | |
 |           | |                                            +-------------------VME1_MERS1
 |           | |                                            |
 |        +--+ +--------------------------------------------++--------------------VME1_BCHK5
 |        |  |                                              ||
 |        |  |                                              ++
 |        |  |                                               |                 +VME1_BCHK4
 |        |  |                                               +-----------------+
 |        |  |                                                                 +VME1_BC133
 |        |  |
 |        |  |                                                                  +--VME1_BCRP3
 +--------+  |                                                                 ++
          |  |                                                                 ||+--VME1_SARS
          |  |                                                                 |++
          |  |                                                          +------+ +-VME1_BCHK3
          |  |                                                          |      |
          |  +----------------------------------------------------------+      +---VME1_BC279
          |                                                             |
          |                                                             +------------NC_045512.2_172
          |
          +---------------------------------------------------------------VME1_BCHK9
